
spl/u-boot-spl:     file format elf32-littlearm

Sections:
Idx Name          Size      VMA       LMA       File off  Algn
  0 .text         00004390  00108000  00108000  00008000  2**5
                  CONTENTS, ALLOC, LOAD, READONLY, CODE
  1 .rodata       0000063f  0010c390  0010c390  0000c390  2**2
                  CONTENTS, ALLOC, LOAD, READONLY, DATA
  2 .data         000005cc  0010c9d0  0010c9d0  0000c9d0  2**2
                  CONTENTS, ALLOC, LOAD, DATA
  3 .u_boot_list  00000264  0010cf9c  0010cf9c  0000cf9c  2**2
                  CONTENTS, ALLOC, LOAD, DATA
  4 .binman_sym_table 00000004  0010d200  0010d200  0000d200  2**2
                  CONTENTS, ALLOC, LOAD, DATA
  5 .bss          0000004c  0010d204  0010d204  00000000  2**2
                  ALLOC
  6 .ARM.attributes 00000023  00000000  00000000  0000d204  2**0
                  CONTENTS, READONLY
  7 .comment      00000011  00000000  00000000  0000d227  2**0
                  CONTENTS, READONLY
  8 .debug_line   000222d2  00000000  00000000  0000d238  2**0
                  CONTENTS, READONLY, DEBUGGING
  9 .debug_info   0007bec4  00000000  00000000  0002f50a  2**0
                  CONTENTS, READONLY, DEBUGGING
 10 .debug_abbrev 00012a09  00000000  00000000  000ab3ce  2**0
                  CONTENTS, READONLY, DEBUGGING
 11 .debug_aranges 00001f28  00000000  00000000  000bddd8  2**3
                  CONTENTS, READONLY, DEBUGGING
 12 .debug_str    0000e33a  00000000  00000000  000bfd00  2**0
                  CONTENTS, READONLY, DEBUGGING
 13 .debug_frame  00004d3c  00000000  00000000  000ce03c  2**2
                  CONTENTS, READONLY, DEBUGGING
 14 .debug_loc    0003df2b  00000000  00000000  000d2d78  2**0
                  CONTENTS, READONLY, DEBUGGING
 15 .debug_ranges 00003ed0  00000000  00000000  00110ca8  2**3
                  CONTENTS, READONLY, DEBUGGING
 